Práctica II
…
Ejercicio 7:

Si tuviéramos que construir un “índice” que valore de forma conjunta el desarrollo económico de una provincia, ¿cómo se podría construir utilizando una combinación lineal de todas las variables? ¿A qué correspondería de lo que hemos visto? ¿Cuál sería el valor de dicho índice en Madrid? ¿Cual sería su valor en Melilla?

# Completa el código
A <- c()
for (i in 1:52) A[i] <- sum(pca_fit$svd$V[,1]*pca_full[i,])
A <- rescale(A)

provincias_range <- provincias_scale %>%   mutate(indice = A)

provincias_range

# A tibble: 52 x 20
   Prov   Pobla~1 Morta~2 Natal~3   IPC NumEm~4 Indus~5 Const~6    CTH
   <chr>    <dbl>   <dbl>   <dbl> <dbl>   <dbl>   <dbl>   <dbl>  <dbl>
 1 Albac~  0.0491   0.420  0.252  0.293  0.0455  0.119   0.0526 0.0581
 2 Alica~  0.280    0.255  0.216  0.411  0.251   0.363   0.288  0.324 
 3 Almer~  0.0969   0.128  0.425  0.205  0.0725  0.0774  0.0856 0.103 
 4 Álava   0.0373   0.222  0.342  0.515  0.0313  0.0722  0.0398 0.0354
 5 Astur~  0.153    0.742  0.0515 0.353  0.126   0.125   0.137  0.166 
 6 Badaj~  0.0952   0.436  0.247  0.105  0.0711  0.109   0.0723 0.105 
 7 Balea~  0.160    0.148  0.287  0.829  0.165   0.159   0.239  0.183 
 8 Barce~  0.854    0.276  0.297  1      0.866   1       0.850  0.984 
 9 Bizka~  0.168    0.467  0.218  0.691  0.147   0.190   0.177  0.185 
10 Burgos  0.0443   0.548  0.159  0.786  0.0427  0.0628  0.0564 0.0495
# ... with 42 more rows, 11 more variables: Infor <dbl>, AFS <dbl>,
#   APT <dbl>, TasaActividad <dbl>, TasaParo <dbl>, Ocupados <dbl>,
#   PIB <dbl>, CANE <dbl>, TVF <dbl>, VS <dbl>, indice <dbl>, and
#   abbreviated variable names 1: Poblacion, 2: Mortalidad,
#   3: Natalidad, 4: NumEmpresas, 5: Industria, 6: Construccion
…
