Práctica I
…
Obtén los scores (las nuevas coordenadas de los datos, proyectados en
las nuevas direcciones) y comenta lo que consideres JG: 3:38:40
comienza la explicacion de los scores, Las scores son las nuevas
coordenadas de los registros en la componente 1….2…..3, esto es lo
que le vamos a meter a cualquier algoritmo que queramos aplicar, estos
datos transformados, no los originales ind de individuos y coord de
coordenadas

# Completa el código y cambia a eval = TRUE
pca_scores <- as_tibble(pca_fit$ind$coord)
names(pca_scores) <- c("PC_1", "PC_2", "PC_3", "PC_4", "PC_5","PC_6","PC_7","PC_8","PC_9","PC_10","PC_11","PC_12","PC_13","PC_14","PC_15","PC_16","PC_17","PC_18","PC_19","PC_20")
pca_scores # Nuevas coordenadas

# A tibble: 21 x 20
     PC_1   PC_2    PC_3   PC_4   PC_5   PC_6   PC_7   PC_8    PC_9
    <dbl>  <dbl>   <dbl>  <dbl>  <dbl>  <dbl>  <dbl>  <dbl>   <dbl>
 1 -0.131 -4.89   1.81   -2.17  -0.180  1.17   0.342 -0.149  0.890 
 2 -2.04  -0.516 -0.380  -1.02  -1.71   0.367  0.951  0.103 -1.01  
 3 -4.59   0.165 -1.39    0.106 -0.770 -0.586 -0.193 -0.253 -0.312 
 4 -4.33  -2.23  -0.529   0.157  0.810 -0.335 -0.108  0.102  0.282 
 5 -4.97  -0.248 -0.196   0.333  0.545 -0.894 -0.293  0.477 -0.360 
 6  0.532 -2.83   0.603  -0.424 -0.338 -0.855  0.347 -0.147  0.175 
 7 -4.19  -2.71  -0.314   0.486  0.368 -0.884  0.213 -0.400 -0.463 
 8 -3.01   2.87   3.10    2.92  -0.467  0.666  0.813 -0.923  0.0649
 9 -3.96   0.796 -0.0517  0.514  3.21   0.740 -0.469  0.187  0.650 
10  2.29  -0.186 -0.693   1.69  -1.73   0.651 -0.809  0.129  0.590 
# ... with 11 more rows, and 11 more variables: PC_10 <dbl>,
#   PC_11 <dbl>, PC_12 <dbl>, PC_13 <dbl>, PC_14 <dbl>, PC_15 <dbl>,
#   PC_16 <dbl>, PC_17 <dbl>, PC_18 <dbl>, PC_19 <dbl>, PC_20 <dbl>
…
Mean imputation for all_numeric_predictors()
Mode imputation for all_nominal_predictors()
Centering and scaling for all_numeric_predictors()
Zero variance filter on all_numeric_predictors()

receta <-
  receta %>%
  step_pca(all_numeric_predictors(), num_comp = 5,
           prefix = "PC") 

data_pc <- bake(receta %>% prep(), new_data = NULL)
data_pc

# A tibble: 21 x 7
   Distrito            Partido       PC1    PC2     PC3    PC4    PC5
   <fct>               <fct>       <dbl>  <dbl>   <dbl>  <dbl>  <dbl>
 1 CENTRO              Más Madrid  0.128  4.78   1.76   -2.12  -0.176
 2 ARGANZUELA          Más Madrid  1.99   0.503 -0.371  -0.993 -1.67 
 3 RETIRO              PP          4.48  -0.161 -1.36    0.104 -0.751
 4 SALAMANCA           PP          4.22   2.18  -0.516   0.154  0.790
 5 CHAMARTÍN           PP          4.85   0.242 -0.191   0.325  0.532
 6 TETUÁN              Más Madrid -0.520  2.76   0.588  -0.414 -0.330
 7 CHAMBERÍ            PP          4.09   2.64  -0.306   0.474  0.359
 8 FUENCARRAL-EL PARDO PP          2.93  -2.80   3.02    2.85  -0.455
 9 MONCLOA-ARAVACA     PP          3.86  -0.777 -0.0504  0.501  3.14 
10 LATINA              Más Madrid -2.23   0.181 -0.676   1.65  -1.69 
# ... with 11 more rows
…
